log-mel-spectrogram.sim/sim_1/behav/xsim/simulate.log
Time resolution is 1 ps
t_clk=          0, n=          0
t_clk=          0, n=          0, data_i=     x, di_en=0
t_clk=          1, n=          1
t_clk=          1, n=          1, data_i=  4096, di_en=1
t_clk=          2, n=          2
t_clk=          2, n=          2, data_i=  4064, di_en=1
t_clk=          3, n=          3
t_clk=          3, n=          3, data_i=  4064, di_en=1
t_clk=          4, n=          4
t_clk=          4, n=          4, data_i=  4064, di_en=1
t_clk=          5, n=          5
t_clk=          5, n=          5, data_i=  4064, di_en=1
t_clk=          6, n=          6
t_clk=          6, n=          6, data_i=  4064, di_en=1
t_clk=          7, n=          7
t_clk=          7, n=          7, data_i=  4064, di_en=1
t_clk=          8, n=          8
t_clk=          8, n=          8, data_i=  4064, di_en=1
t_clk=          9, n=          9
t_clk=          9, n=          9, data_i=  4064, di_en=1
t_clk=         10, n=         10
t_clk=         10, n=         10, data_i=  4064, di_en=1
t_clk=         11, n=         11
t_clk=         11, n=         11, data_i=  4064, di_en=1
t_clk=         12, n=         12
t_clk=         12, n=         12, data_i=  4064, di_en=1
t_clk=         13, n=         13
t_clk=         13, n=         13, data_i=  4064, di_en=1
t_clk=         14, n=         14
t_clk=         14, n=         14, data_i=  4064, di_en=1
t_clk=         15, n=         15
t_clk=         15, n=         15, data_i=  4064, di_en=1
t_clk=         16, n=         16
t_clk=         16, n=         16, data_i=  4064, di_en=1
t_clk=         17, n=         17
t_clk=         17, n=         17, data_i=  4064, di_en=1
t_clk=         18, n=         18
t_clk=         18, n=         18, data_i=  4064, di_en=1
t_clk=         19, n=         19
t_clk=         19, n=         19, data_i=  4064, di_en=1
t_clk=         20, n=         20
t_clk=         20, n=         20, data_i=  4064, di_en=1
t_clk=         21, n=         21
t_clk=         21, n=         21, data_i=  4064, di_en=1
t_clk=         22, n=         22
t_clk=         22, n=         22, data_i=  4032, di_en=1
t_clk=         23, n=         23
t_clk=         23, n=         23, data_i=  4032, di_en=1
t_clk=         24, n=         24
t_clk=         24, n=         24, data_i=  4032, di_en=1
t_clk=         25, n=         25
t_clk=         25, n=         25, data_i=  4032, di_en=1
t_clk=         26, n=         26
t_clk=         26, n=         26, data_i=  4032, di_en=1
t_clk=         27, n=         27
t_clk=         27, n=         27, data_i=  4032, di_en=1
t_clk=         28, n=         28
t_clk=         28, n=         28, data_i=  4032, di_en=1
t_clk=         29, n=         29
t_clk=         29, n=         29, data_i=  4032, di_en=1
t_clk=         30, n=         30
t_clk=         30, n=         30, data_i=  4000, di_en=1
t_clk=         31, n=         31
t_clk=         31, n=         31, data_i=  4000, di_en=1
t_clk=         32, n=         32
t_clk=         32, n=         32, data_i=  4000, di_en=1
t_clk=         33, n=         33
t_clk=         33, n=         33, data_i=  4000, di_en=1
t_clk=         34, n=         34
t_clk=         34, n=         34, data_i=  4000, di_en=1
t_clk=         35, n=         35
t_clk=         35, n=         35, data_i=  4000, di_en=1
t_clk=         36, n=         36
t_clk=         36, n=         36, data_i=  4000, di_en=1
t_clk=         37, n=         37
t_clk=         37, n=         37, data_i=  3968, di_en=1
t_clk=         38, n=         38
t_clk=         38, n=         38, data_i=  3968, di_en=1
t_clk=         39, n=         39
t_clk=         39, n=         39, data_i=  3968, di_en=1
t_clk=         40, n=         40
t_clk=         40, n=         40, data_i=  3968, di_en=1
t_clk=         41, n=         41
t_clk=         41, n=         41, data_i=  3968, di_en=1
t_clk=         42, n=         42
t_clk=         42, n=         42, data_i=  3936, di_en=1
t_clk=         43, n=         43
t_clk=         43, n=         43, data_i=  3936, di_en=1
t_clk=         44, n=         44
t_clk=         44, n=         44, data_i=  3936, di_en=1
t_clk=         45, n=         45
t_clk=         45, n=         45, data_i=  3936, di_en=1
t_clk=         46, n=         46
t_clk=         46, n=         46, data_i=  3936, di_en=1
t_clk=         47, n=         47
t_clk=         47, n=         47, data_i=  3904, di_en=1
t_clk=         48, n=         48
t_clk=         48, n=         48, data_i=  3904, di_en=1
t_clk=         49, n=         49
t_clk=         49, n=         49, data_i=  3904, di_en=1
t_clk=         50, n=         50
t_clk=         50, n=         50, data_i=  3904, di_en=1
t_clk=         51, n=         51
t_clk=         51, n=         51, data_i=  3904, di_en=1
t_clk=         52, n=         52
t_clk=         52, n=         52, data_i=  3872, di_en=1
t_clk=         53, n=         53
t_clk=         53, n=         53, data_i=  3872, di_en=1
t_clk=         54, n=         54
t_clk=         54, n=         54, data_i=  3872, di_en=1
t_clk=         55, n=         55
t_clk=         55, n=         55, data_i=  3872, di_en=1
t_clk=         56, n=         56
t_clk=         56, n=         56, data_i=  3840, di_en=1
t_clk=         57, n=         57
t_clk=         57, n=         57, data_i=  3840, di_en=1
t_clk=         58, n=         58
t_clk=         58, n=         58, data_i=  3840, di_en=1
t_clk=         59, n=         59
t_clk=         59, n=         59, data_i=  3808, di_en=1
t_clk=         60, n=         60
t_clk=         60, n=         60, data_i=  3808, di_en=1
t_clk=         61, n=         61
t_clk=         61, n=         61, data_i=  3808, di_en=1
t_clk=         62, n=         62
t_clk=         62, n=         62, data_i=  3808, di_en=1
t_clk=         63, n=         63
t_clk=         63, n=         63, data_i=  3776, di_en=1
t_clk=         64, n=         64
t_clk=         64, n=         64, data_i=  3776, di_en=1
t_clk=         65, n=         65
t_clk=         65, n=         65, data_i=  3776, di_en=1
t_clk=         66, n=         66
t_clk=         66, n=         66, data_i=  3744, di_en=1
t_clk=         67, n=         67
t_clk=         67, n=         67, data_i=  3744, di_en=1
t_clk=         68, n=         68
t_clk=         68, n=         68, data_i=  3744, di_en=1
t_clk=         69, n=         69
t_clk=         69, n=         69, data_i=  3744, di_en=1
t_clk=         70, n=         70
t_clk=         70, n=         70, data_i=  3712, di_en=1
t_clk=         71, n=         71
t_clk=         71, n=         71, data_i=  3712, di_en=1
t_clk=         72, n=         72
t_clk=         72, n=         72, data_i=  3712, di_en=1
t_clk=         73, n=         73
t_clk=         73, n=         73, data_i=  3680, di_en=1
t_clk=         74, n=         74
t_clk=         74, n=         74, data_i=  3680, di_en=1
t_clk=         75, n=         75
t_clk=         75, n=         75, data_i=  3680, di_en=1
t_clk=         76, n=         76
t_clk=         76, n=         76, data_i=  3648, di_en=1
t_clk=         77, n=         77
t_clk=         77, n=         77, data_i=  3648, di_en=1
t_clk=         78, n=         78
t_clk=         78, n=         78, data_i=  3616, di_en=1
t_clk=         79, n=         79
t_clk=         79, n=         79, data_i=  3616, di_en=1
t_clk=         80, n=         80
t_clk=         80, n=         80, data_i=  3616, di_en=1
t_clk=         81, n=         81
t_clk=         81, n=         81, data_i=  3584, di_en=1
t_clk=         82, n=         82
t_clk=         82, n=         82, data_i=  3584, di_en=1
t_clk=         83, n=         83
t_clk=         83, n=         83, data_i=  3584, di_en=1
t_clk=         84, n=         84
t_clk=         84, n=         84, data_i=  3552, di_en=1
t_clk=         85, n=         85
t_clk=         85, n=         85, data_i=  3552, di_en=1
t_clk=         86, n=         86
t_clk=         86, n=         86, data_i=  3520, di_en=1
t_clk=         87, n=         87
t_clk=         87, n=         87, data_i=  3520, di_en=1
t_clk=         88, n=         88
t_clk=         88, n=         88, data_i=  3520, di_en=1
t_clk=         89, n=         89
t_clk=         89, n=         89, data_i=  3488, di_en=1
t_clk=         90, n=         90
t_clk=         90, n=         90, data_i=  3488, di_en=1
t_clk=         91, n=         91
t_clk=         91, n=         91, data_i=  3456, di_en=1
t_clk=         92, n=         92
t_clk=         92, n=         92, data_i=  3456, di_en=1
t_clk=         93, n=         93
t_clk=         93, n=         93, data_i=  3456, di_en=1
t_clk=         94, n=         94
t_clk=         94, n=         94, data_i=  3424, di_en=1
t_clk=         95, n=         95
t_clk=         95, n=         95, data_i=  3424, di_en=1
t_clk=         96, n=         96
t_clk=         96, n=         96, data_i=  3392, di_en=1
t_clk=         97, n=         97
t_clk=         97, n=         97, data_i=  3392, di_en=1
t_clk=         98, n=         98
t_clk=         98, n=         98, data_i=  3360, di_en=1
t_clk=         99, n=         99
t_clk=         99, n=         99, data_i=  3360, di_en=1
t_clk=        100, n=        100
t_clk=        100, n=        100, data_i=  3360, di_en=1
t_clk=        101, n=        101
t_clk=        101, n=        101, data_i=  3328, di_en=1
t_clk=        102, n=        102
t_clk=        102, n=        102, data_i=  3328, di_en=1
t_clk=        103, n=        103
t_clk=        103, n=        103, data_i=  3296, di_en=1
t_clk=        104, n=        104
t_clk=        104, n=        104, data_i=  3296, di_en=1
t_clk=        105, n=        105
t_clk=        105, n=        105, data_i=  3264, di_en=1
t_clk=        106, n=        106
t_clk=        106, n=        106, data_i=  3264, di_en=1
t_clk=        107, n=        107
t_clk=        107, n=        107, data_i=  3232, di_en=1
t_clk=        108, n=        108
t_clk=        108, n=        108, data_i=  3232, di_en=1
t_clk=        109, n=        109
t_clk=        109, n=        109, data_i=  3200, di_en=1
t_clk=        110, n=        110
t_clk=        110, n=        110, data_i=  3200, di_en=1
t_clk=        111, n=        111
t_clk=        111, n=        111, data_i=  3168, di_en=1
t_clk=        112, n=        112
t_clk=        112, n=        112, data_i=  3168, di_en=1
t_clk=        113, n=        113
t_clk=        113, n=        113, data_i=  3136, di_en=1
t_clk=        114, n=        114
t_clk=        114, n=        114, data_i=  3136, di_en=1
t_clk=        115, n=        115
t_clk=        115, n=        115, data_i=  3104, di_en=1
t_clk=        116, n=        116
t_clk=        116, n=        116, data_i=  3104, di_en=1
t_clk=        117, n=        117
t_clk=        117, n=        117, data_i=  3072, di_en=1
t_clk=        118, n=        118
t_clk=        118, n=        118, data_i=  3072, di_en=1
t_clk=        119, n=        119
t_clk=        119, n=        119, data_i=  3040, di_en=1
t_clk=        120, n=        120
t_clk=        120, n=        120, data_i=  3040, di_en=1
t_clk=        121, n=        121
t_clk=        121, n=        121, data_i=  3008, di_en=1
t_clk=        122, n=        122
t_clk=        122, n=        122, data_i=  3008, di_en=1
t_clk=        123, n=        123
t_clk=        123, n=        123, data_i=  2976, di_en=1
t_clk=        124, n=        124
t_clk=        124, n=        124, data_i=  2976, di_en=1
t_clk=        125, n=        125
t_clk=        125, n=        125, data_i=  2944, di_en=1
t_clk=        126, n=        126
t_clk=        126, n=        126, data_i=  2944, di_en=1
t_clk=        127, n=        127
t_clk=        127, n=        127, data_i=  2912, di_en=1
t_clk=        128, n=        128
t_clk=        128, n=        128, data_i=  2912, di_en=1
t_clk=        129, n=        129
t_clk=        129, n=        129, data_i=  2880, di_en=1
t_clk=        130, n=        130
t_clk=        130, n=        130, data_i=  2848, di_en=1
t_clk=        131, n=        131
t_clk=        131, n=        131, data_i=  2848, di_en=1
t_clk=        132, n=        132
t_clk=        132, n=        132, data_i=  2816, di_en=1
t_clk=        133, n=        133
t_clk=        133, n=        133, data_i=  2816, di_en=1
t_clk=        134, n=        134
t_clk=        134, n=        134, data_i=  2784, di_en=1
t_clk=        135, n=        135
t_clk=        135, n=        135, data_i=  2784, di_en=1
t_clk=        136, n=        136
t_clk=        136, n=        136, data_i=  2752, di_en=1
t_clk=        137, n=        137
t_clk=        137, n=        137, data_i=  2720, di_en=1
t_clk=        138, n=        138
t_clk=        138, n=        138, data_i=  2720, di_en=1
t_clk=        139, n=        139
t_clk=        139, n=        139, data_i=  2688, di_en=1
t_clk=        140, n=        140
t_clk=        140, n=        140, data_i=  2688, di_en=1
t_clk=        141, n=        141
t_clk=        141, n=        141, data_i=  2656, di_en=1
t_clk=        142, n=        142
t_clk=        142, n=        142, data_i=  2656, di_en=1
t_clk=        143, n=        143
t_clk=        143, n=        143, data_i=  2624, di_en=1
t_clk=        144, n=        144
t_clk=        144, n=        144, data_i=  2592, di_en=1
t_clk=        145, n=        145
t_clk=        145, n=        145, data_i=  2592, di_en=1
t_clk=        146, n=        146
t_clk=        146, n=        146, data_i=  2560, di_en=1
t_clk=        147, n=        147
t_clk=        147, n=        147, data_i=  2528, di_en=1
t_clk=        148, n=        148
t_clk=        148, n=        148, data_i=  2528, di_en=1
t_clk=        149, n=        149
t_clk=        149, n=        149, data_i=  2496, di_en=1
t_clk=        150, n=        150
t_clk=        150, n=        150, data_i=  2496, di_en=1
t_clk=        151, n=        151
t_clk=        151, n=        151, data_i=  2464, di_en=1
t_clk=        152, n=        152
t_clk=        152, n=        152, data_i=  2432, di_en=1
t_clk=        153, n=        153
t_clk=        153, n=        153, data_i=  2432, di_en=1
t_clk=        154, n=        154
t_clk=        154, n=        154, data_i=  2400, di_en=1
t_clk=        155, n=        155
t_clk=        155, n=        155, data_i=  2368, di_en=1
t_clk=        156, n=        156
t_clk=        156, n=        156, data_i=  2368, di_en=1
t_clk=        157, n=        157
t_clk=        157, n=        157, data_i=  2336, di_en=1
t_clk=        158, n=        158
t_clk=        158, n=        158, data_i=  2336, di_en=1
t_clk=        159, n=        159
t_clk=        159, n=        159, data_i=  2304, di_en=1
t_clk=        160, n=        160
t_clk=        160, n=        160, data_i=  2272, di_en=1
t_clk=        161, n=        161
t_clk=        161, n=        161, data_i=  2272, di_en=1
t_clk=        162, n=        162
t_clk=        162, n=        162, data_i=  2240, di_en=1
t_clk=        163, n=        163
t_clk=        163, n=        163, data_i=  2208, di_en=1
t_clk=        164, n=        164
t_clk=        164, n=        164, data_i=  2208, di_en=1
t_clk=        165, n=        165
t_clk=        165, n=        165, data_i=  2176, di_en=1
t_clk=        166, n=        166
t_clk=        166, n=        166, data_i=  2144, di_en=1
t_clk=        167, n=        167
t_clk=        167, n=        167, data_i=  2144, di_en=1
t_clk=        168, n=        168
t_clk=        168, n=        168, data_i=  2112, di_en=1
t_clk=        169, n=        169
t_clk=        169, n=        169, data_i=  2080, di_en=1
t_clk=        170, n=        170
t_clk=        170, n=        170, data_i=  2080, di_en=1
t_clk=        171, n=        171
t_clk=        171, n=        171, data_i=  2048, di_en=1
t_clk=        172, n=        172
t_clk=        172, n=        172, data_i=  2016, di_en=1
t_clk=        173, n=        173
t_clk=        173, n=        173, data_i=  2016, di_en=1
t_clk=        174, n=        174
t_clk=        174, n=        174, data_i=  1984, di_en=1
t_clk=        175, n=        175
t_clk=        175, n=        175, data_i=  1952, di_en=1
t_clk=        176, n=        176
t_clk=        176, n=        176, data_i=  1952, di_en=1
t_clk=        177, n=        177
t_clk=        177, n=        177, data_i=  1920, di_en=1
t_clk=        178, n=        178
t_clk=        178, n=        178, data_i=  1888, di_en=1
t_clk=        179, n=        179
t_clk=        179, n=        179, data_i=  1856, di_en=1
t_clk=        180, n=        180
t_clk=        180, n=        180, data_i=  1856, di_en=1
t_clk=        181, n=        181
t_clk=        181, n=        181, data_i=  1824, di_en=1
t_clk=        182, n=        182
t_clk=        182, n=        182, data_i=  1792, di_en=1
t_clk=        183, n=        183
t_clk=        183, n=        183, data_i=  1792, di_en=1
t_clk=        184, n=        184
t_clk=        184, n=        184, data_i=  1760, di_en=1
t_clk=        185, n=        185
t_clk=        185, n=        185, data_i=  1728, di_en=1
t_clk=        186, n=        186
t_clk=        186, n=        186, data_i=  1728, di_en=1
t_clk=        187, n=        187
t_clk=        187, n=        187, data_i=  1696, di_en=1
t_clk=        188, n=        188
t_clk=        188, n=        188, data_i=  1664, di_en=1
t_clk=        189, n=        189
t_clk=        189, n=        189, data_i=  1632, di_en=1
t_clk=        190, n=        190
t_clk=        190, n=        190, data_i=  1632, di_en=1
t_clk=        191, n=        191
t_clk=        191, n=        191, data_i=  1600, di_en=1
t_clk=        192, n=        192
t_clk=        192, n=        192, data_i=  1568, di_en=1
t_clk=        193, n=        193
t_clk=        193, n=        193, data_i=  1536, di_en=1
t_clk=        194, n=        194
t_clk=        194, n=        194, data_i=  1536, di_en=1
t_clk=        195, n=        195
t_clk=        195, n=        195, data_i=  1504, di_en=1
t_clk=        196, n=        196
t_clk=        196, n=        196, data_i=  1472, di_en=1
t_clk=        197, n=        197
t_clk=        197, n=        197, data_i=  1472, di_en=1
t_clk=        198, n=        198
t_clk=        198, n=        198, data_i=  1440, di_en=1
t_clk=        199, n=        199
t_clk=        199, n=        199, data_i=  1408, di_en=1
t_clk=        200, n=        200
t_clk=        200, n=        200, data_i=  1376, di_en=1
t_clk=        201, n=        201
t_clk=        201, n=        201, data_i=  1376, di_en=1
t_clk=        202, n=        202
t_clk=        202, n=        202, data_i=  1344, di_en=1
t_clk=        203, n=        203
t_clk=        203, n=        203, data_i=  1312, di_en=1
t_clk=        204, n=        204
t_clk=        204, n=        204, data_i=  1280, di_en=1
t_clk=        205, n=        205
t_clk=        205, n=        205, data_i=  1280, di_en=1
t_clk=        206, n=        206
t_clk=        206, n=        206, data_i=  1248, di_en=1
t_clk=        207, n=        207
t_clk=        207, n=        207, data_i=  1216, di_en=1
t_clk=        208, n=        208
t_clk=        208, n=        208, data_i=  1184, di_en=1
t_clk=        209, n=        209
t_clk=        209, n=        209, data_i=  1184, di_en=1
t_clk=        210, n=        210
t_clk=        210, n=        210, data_i=  1152, di_en=1
t_clk=        211, n=        211
t_clk=        211, n=        211, data_i=  1120, di_en=1
t_clk=        212, n=        212
t_clk=        212, n=        212, data_i=  1088, di_en=1
t_clk=        213, n=        213
t_clk=        213, n=        213, data_i=  1088, di_en=1
t_clk=        214, n=        214
t_clk=        214, n=        214, data_i=  1056, di_en=1
t_clk=        215, n=        215
t_clk=        215, n=        215, data_i=  1024, di_en=1
t_clk=        216, n=        216
t_clk=        216, n=        216, data_i=   992, di_en=1
t_clk=        217, n=        217
t_clk=        217, n=        217, data_i=   992, di_en=1
t_clk=        218, n=        218
t_clk=        218, n=        218, data_i=   960, di_en=1
t_clk=        219, n=        219
t_clk=        219, n=        219, data_i=   928, di_en=1
t_clk=        220, n=        220
t_clk=        220, n=        220, data_i=   896, di_en=1
t_clk=        221, n=        221
t_clk=        221, n=        221, data_i=   896, di_en=1
t_clk=        222, n=        222
t_clk=        222, n=        222, data_i=   864, di_en=1
t_clk=        223, n=        223
t_clk=        223, n=        223, data_i=   832, di_en=1
t_clk=        224, n=        224
t_clk=        224, n=        224, data_i=   800, di_en=1
t_clk=        225, n=        225
t_clk=        225, n=        225, data_i=   768, di_en=1
t_clk=        226, n=        226
t_clk=        226, n=        226, data_i=   768, di_en=1
t_clk=        227, n=        227
t_clk=        227, n=        227, data_i=   736, di_en=1
t_clk=        228, n=        228
t_clk=        228, n=        228, data_i=   704, di_en=1
t_clk=        229, n=        229
t_clk=        229, n=        229, data_i=   672, di_en=1
t_clk=        230, n=        230
t_clk=        230, n=        230, data_i=   672, di_en=1
t_clk=        231, n=        231
t_clk=        231, n=        231, data_i=   640, di_en=1
t_clk=        232, n=        232
t_clk=        232, n=        232, data_i=   608, di_en=1
t_clk=        233, n=        233
t_clk=        233, n=        233, data_i=   576, di_en=1
t_clk=        234, n=        234
t_clk=        234, n=        234, data_i=   576, di_en=1
t_clk=        235, n=        235
t_clk=        235, n=        235, data_i=   544, di_en=1
t_clk=        236, n=        236
t_clk=        236, n=        236, data_i=   512, di_en=1
t_clk=        237, n=        237
t_clk=        237, n=        237, data_i=   480, di_en=1
t_clk=        238, n=        238
t_clk=        238, n=        238, data_i=   448, di_en=1
t_clk=        239, n=        239
t_clk=        239, n=        239, data_i=   448, di_en=1
t_clk=        240, n=        240
t_clk=        240, n=        240, data_i=   416, di_en=1
t_clk=        241, n=        241
t_clk=        241, n=        241, data_i=   384, di_en=1
t_clk=        242, n=        242
t_clk=        242, n=        242, data_i=   352, di_en=1
t_clk=        243, n=        243
t_clk=        243, n=        243, data_i=   320, di_en=1
t_clk=        244, n=        244
t_clk=        244, n=        244, data_i=   320, di_en=1
t_clk=        245, n=        245
t_clk=        245, n=        245, data_i=   288, di_en=1
t_clk=        246, n=        246
t_clk=        246, n=        246, data_i=   256, di_en=1
t_clk=        247, n=        247
t_clk=        247, n=        247, data_i=   224, di_en=1
t_clk=        248, n=        248
t_clk=        248, n=        248, data_i=   224, di_en=1
t_clk=        249, n=        249
t_clk=        249, n=        249, data_i=   192, di_en=1
t_clk=        250, n=        250
t_clk=        250, n=        250, data_i=   160, di_en=1
t_clk=        251, n=        251
t_clk=        251, n=        251, data_i=   128, di_en=1
t_clk=        252, n=        252
t_clk=        252, n=        252, data_i=    96, di_en=1
t_clk=        253, n=        253
t_clk=        253, n=        253, data_i=    96, di_en=1
t_clk=        254, n=        254
t_clk=        254, n=        254, data_i=    64, di_en=1
t_clk=        255, n=        255
t_clk=        255, n=        255, data_i=    32, di_en=1
t_clk=        256, n=        256
t_clk=        256, n=        256, data_i=     0, di_en=1
t_clk=        257, n=        257
t_clk=        257, n=        257, data_i=     0, di_en=1
t_clk=        258, n=        258
t_clk=        258, n=        258, data_i=     0, di_en=1
t_clk=        259, n=        259
t_clk=        259, n=        259, data_i=   -32, di_en=1
t_clk=        260, n=        260
t_clk=        260, n=        260, data_i=   -64, di_en=1
t_clk=        261, n=        261
t_clk=        261, n=        261, data_i=   -96, di_en=1
t_clk=        262, n=        262
t_clk=        262, n=        262, data_i=   -96, di_en=1
t_clk=        263, n=        263
t_clk=        263, n=        263, data_i=  -128, di_en=1
t_clk=        264, n=        264
t_clk=        264, n=        264, data_i=  -160, di_en=1
t_clk=        265, n=        265
t_clk=        265, n=        265, data_i=  -192, di_en=1
t_clk=        266, n=        266
t_clk=        266, n=        266, data_i=  -224, di_en=1
t_clk=        267, n=        267
t_clk=        267, n=        267, data_i=  -224, di_en=1
t_clk=        268, n=        268
t_clk=        268, n=        268, data_i=  -256, di_en=1
t_clk=        269, n=        269
t_clk=        269, n=        269, data_i=  -288, di_en=1
t_clk=        270, n=        270
t_clk=        270, n=        270, data_i=  -320, di_en=1
t_clk=        271, n=        271
t_clk=        271, n=        271, data_i=  -320, di_en=1
t_clk=        272, n=        272
t_clk=        272, n=        272, data_i=  -352, di_en=1
t_clk=        273, n=        273
t_clk=        273, n=        273, data_i=  -384, di_en=1
t_clk=        274, n=        274
t_clk=        274, n=        274, data_i=  -416, di_en=1
t_clk=        275, n=        275
t_clk=        275, n=        275, data_i=  -448, di_en=1
t_clk=        276, n=        276
t_clk=        276, n=        276, data_i=  -448, di_en=1
t_clk=        277, n=        277
t_clk=        277, n=        277, data_i=  -480, di_en=1
t_clk=        278, n=        278
t_clk=        278, n=        278, data_i=  -512, di_en=1
t_clk=        279, n=        279
t_clk=        279, n=        279, data_i=  -544, di_en=1
t_clk=        280, n=        280
t_clk=        280, n=        280, data_i=  -576, di_en=1
t_clk=        281, n=        281
t_clk=        281, n=        281, data_i=  -576, di_en=1
t_clk=        282, n=        282
t_clk=        282, n=        282, data_i=  -608, di_en=1
t_clk=        283, n=        283
t_clk=        283, n=        283, data_i=  -640, di_en=1
t_clk=        284, n=        284
t_clk=        284, n=        284, data_i=  -672, di_en=1
t_clk=        285, n=        285
t_clk=        285, n=        285, data_i=  -672, di_en=1
t_clk=        286, n=        286
t_clk=        286, n=        286, data_i=  -704, di_en=1
t_clk=        287, n=        287
t_clk=        287, n=        287, data_i=  -736, di_en=1
t_clk=        288, n=        288
t_clk=        288, n=        288, data_i=  -768, di_en=1
t_clk=        289, n=        289
t_clk=        289, n=        289, data_i=  -768, di_en=1
t_clk=        290, n=        290
t_clk=        290, n=        290, data_i=  -800, di_en=1
t_clk=        291, n=        291
t_clk=        291, n=        291, data_i=  -832, di_en=1
t_clk=        292, n=        292
t_clk=        292, n=        292, data_i=  -864, di_en=1
t_clk=        293, n=        293
t_clk=        293, n=        293, data_i=  -896, di_en=1
t_clk=        294, n=        294
t_clk=        294, n=        294, data_i=  -896, di_en=1
t_clk=        295, n=        295
t_clk=        295, n=        295, data_i=  -928, di_en=1
t_clk=        296, n=        296
t_clk=        296, n=        296, data_i=  -960, di_en=1
t_clk=        297, n=        297
t_clk=        297, n=        297, data_i=  -992, di_en=1
t_clk=        298, n=        298
t_clk=        298, n=        298, data_i=  -992, di_en=1
t_clk=        299, n=        299
t_clk=        299, n=        299, data_i= -1024, di_en=1
t_clk=        300, n=        300
t_clk=        300, n=        300, data_i= -1056, di_en=1
t_clk=        301, n=        301
t_clk=        301, n=        301, data_i= -1088, di_en=1
t_clk=        302, n=        302
t_clk=        302, n=        302, data_i= -1088, di_en=1
t_clk=        303, n=        303
t_clk=        303, n=        303, data_i= -1120, di_en=1
t_clk=        304, n=        304
t_clk=        304, n=        304, data_i= -1152, di_en=1
t_clk=        305, n=        305
t_clk=        305, n=        305, data_i= -1184, di_en=1
t_clk=        306, n=        306
t_clk=        306, n=        306, data_i= -1184, di_en=1
t_clk=        307, n=        307
t_clk=        307, n=        307, data_i= -1216, di_en=1
t_clk=        308, n=        308
t_clk=        308, n=        308, data_i= -1248, di_en=1
t_clk=        309, n=        309
t_clk=        309, n=        309, data_i= -1280, di_en=1
t_clk=        310, n=        310
t_clk=        310, n=        310, data_i= -1280, di_en=1
t_clk=        311, n=        311
t_clk=        311, n=        311, data_i= -1312, di_en=1
t_clk=        312, n=        312
t_clk=        312, n=        312, data_i= -1344, di_en=1
t_clk=        313, n=        313
t_clk=        313, n=        313, data_i= -1376, di_en=1
t_clk=        314, n=        314
t_clk=        314, n=        314, data_i= -1376, di_en=1
t_clk=        315, n=        315
t_clk=        315, n=        315, data_i= -1408, di_en=1
t_clk=        316, n=        316
t_clk=        316, n=        316, data_i= -1440, di_en=1
t_clk=        317, n=        317
t_clk=        317, n=        317, data_i= -1472, di_en=1
t_clk=        318, n=        318
t_clk=        318, n=        318, data_i= -1472, di_en=1
t_clk=        319, n=        319
t_clk=        319, n=        319, data_i= -1504, di_en=1
t_clk=        320, n=        320
t_clk=        320, n=        320, data_i= -1536, di_en=1
t_clk=        321, n=        321
t_clk=        321, n=        321, data_i= -1536, di_en=1
t_clk=        322, n=        322
t_clk=        322, n=        322, data_i= -1568, di_en=1
t_clk=        323, n=        323
t_clk=        323, n=        323, data_i= -1600, di_en=1
t_clk=        324, n=        324
t_clk=        324, n=        324, data_i= -1632, di_en=1
t_clk=        325, n=        325
t_clk=        325, n=        325, data_i= -1632, di_en=1
t_clk=        326, n=        326
t_clk=        326, n=        326, data_i= -1664, di_en=1
t_clk=        327, n=        327
t_clk=        327, n=        327, data_i= -1696, di_en=1
t_clk=        328, n=        328
t_clk=        328, n=        328, data_i= -1728, di_en=1
t_clk=        329, n=        329
t_clk=        329, n=        329, data_i= -1728, di_en=1
t_clk=        330, n=        330
t_clk=        330, n=        330, data_i= -1760, di_en=1
t_clk=        331, n=        331
t_clk=        331, n=        331, data_i= -1792, di_en=1
t_clk=        332, n=        332
t_clk=        332, n=        332, data_i= -1792, di_en=1
t_clk=        333, n=        333
t_clk=        333, n=        333, data_i= -1824, di_en=1
t_clk=        334, n=        334
t_clk=        334, n=        334, data_i= -1856, di_en=1
t_clk=        335, n=        335
t_clk=        335, n=        335, data_i= -1856, di_en=1
t_clk=        336, n=        336
t_clk=        336, n=        336, data_i= -1888, di_en=1
t_clk=        337, n=        337
t_clk=        337, n=        337, data_i= -1920, di_en=1
t_clk=        338, n=        338
t_clk=        338, n=        338, data_i= -1952, di_en=1
t_clk=        339, n=        339
t_clk=        339, n=        339, data_i= -1952, di_en=1
t_clk=        340, n=        340
t_clk=        340, n=        340, data_i= -1984, di_en=1
t_clk=        341, n=        341
t_clk=        341, n=        341, data_i= -2016, di_en=1
t_clk=        342, n=        342
t_clk=        342, n=        342, data_i= -2016, di_en=1
t_clk=        343, n=        343
t_clk=        343, n=        343, data_i= -2048, di_en=1
t_clk=        344, n=        344
t_clk=        344, n=        344, data_i= -2080, di_en=1
t_clk=        345, n=        345
t_clk=        345, n=        345, data_i= -2080, di_en=1
t_clk=        346, n=        346
t_clk=        346, n=        346, data_i= -2112, di_en=1
t_clk=        347, n=        347
t_clk=        347, n=        347, data_i= -2144, di_en=1
t_clk=        348, n=        348
t_clk=        348, n=        348, data_i= -2144, di_en=1
t_clk=        349, n=        349
t_clk=        349, n=        349, data_i= -2176, di_en=1
t_clk=        350, n=        350
t_clk=        350, n=        350, data_i= -2208, di_en=1
t_clk=        351, n=        351
t_clk=        351, n=        351, data_i= -2208, di_en=1
t_clk=        352, n=        352
t_clk=        352, n=        352, data_i= -2240, di_en=1
t_clk=        353, n=        353
t_clk=        353, n=        353, data_i= -2272, di_en=1
t_clk=        354, n=        354
t_clk=        354, n=        354, data_i= -2272, di_en=1
t_clk=        355, n=        355
t_clk=        355, n=        355, data_i= -2304, di_en=1
t_clk=        356, n=        356
t_clk=        356, n=        356, data_i= -2336, di_en=1
t_clk=        357, n=        357
t_clk=        357, n=        357, data_i= -2336, di_en=1
t_clk=        358, n=        358
t_clk=        358, n=        358, data_i= -2368, di_en=1
t_clk=        359, n=        359
t_clk=        359, n=        359, data_i= -2368, di_en=1
t_clk=        360, n=        360
t_clk=        360, n=        360, data_i= -2400, di_en=1
t_clk=        361, n=        361
t_clk=        361, n=        361, data_i= -2432, di_en=1
t_clk=        362, n=        362
t_clk=        362, n=        362, data_i= -2432, di_en=1
t_clk=        363, n=        363
t_clk=        363, n=        363, data_i= -2464, di_en=1
t_clk=        364, n=        364
t_clk=        364, n=        364, data_i= -2496, di_en=1
t_clk=        365, n=        365
t_clk=        365, n=        365, data_i= -2496, di_en=1
t_clk=        366, n=        366
t_clk=        366, n=        366, data_i= -2528, di_en=1
t_clk=        367, n=        367
t_clk=        367, n=        367, data_i= -2528, di_en=1
t_clk=        368, n=        368
t_clk=        368, n=        368, data_i= -2560, di_en=1
t_clk=        369, n=        369
t_clk=        369, n=        369, data_i= -2592, di_en=1
t_clk=        370, n=        370
t_clk=        370, n=        370, data_i= -2592, di_en=1
t_clk=        371, n=        371
t_clk=        371, n=        371, data_i= -2624, di_en=1
t_clk=        372, n=        372
t_clk=        372, n=        372, data_i= -2656, di_en=1
t_clk=        373, n=        373
t_clk=        373, n=        373, data_i= -2656, di_en=1
t_clk=        374, n=        374
t_clk=        374, n=        374, data_i= -2688, di_en=1
