log-mel-spectrogram.sim/sim_1/behav/xsim/simulate.log
Time resolution is 1 ps
a=          x, di_en=x, do_en=x, data_i=xxxxxxxxxxxxxx, data_o=x
a=          0, di_en=0, do_en=0, data_i=xxxxxxxxxxxxxx, data_o=0
a=          1, di_en=0, do_en=0, data_i=xxxxxxxxxxxxxx, data_o=0
a=          2, di_en=0, do_en=0, data_i=xxxxxxxxxxxxxx, data_o=0
a=          3, di_en=0, do_en=0, data_i=xxxxxxxxxxxxxx, data_o=0
a=          4, di_en=0, do_en=0, data_i=xxxxxxxxxxxxxx, data_o=0
a=          5, di_en=0, do_en=0, data_i=xxxxxxxxxxxxxx, data_o=0
a=          6, di_en=0, do_en=0, data_i=xxxxxxxxxxxxxx, data_o=0
a=          7, di_en=0, do_en=0, data_i=xxxxxxxxxxxxxx, data_o=0
a=          8, di_en=0, do_en=0, data_i=xxxxxxxxxxxxxx, data_o=0
a=          9, di_en=0, do_en=0, data_i=xxxxxxxxxxxxxx, data_o=0
a=         10, di_en=1, do_en=0, data_i=01000000000000, data_o=0
a=         11, di_en=1, do_en=0, data_i=00111111100000, data_o=0
a=         12, di_en=1, do_en=0, data_i=00111111100000, data_o=0
a=         13, di_en=1, do_en=0, data_i=00111111100000, data_o=0
a=         14, di_en=1, do_en=0, data_i=00111111100000, data_o=0
a=         15, di_en=1, do_en=0, data_i=00111111100000, data_o=0
a=         16, di_en=1, do_en=0, data_i=00111111100000, data_o=0
a=         17, di_en=1, do_en=0, data_i=00111111100000, data_o=0
a=         18, di_en=1, do_en=0, data_i=00111111100000, data_o=0
a=         19, di_en=1, do_en=0, data_i=00111111100000, data_o=0
a=         20, di_en=1, do_en=0, data_i=00111111100000, data_o=0
a=         21, di_en=1, do_en=0, data_i=00111111100000, data_o=0
a=         22, di_en=1, do_en=0, data_i=00111111100000, data_o=0
a=         23, di_en=1, do_en=0, data_i=00111111100000, data_o=0
a=         24, di_en=1, do_en=0, data_i=00111111100000, data_o=0
a=         25, di_en=1, do_en=0, data_i=00111111100000, data_o=0
a=         26, di_en=1, do_en=0, data_i=00111111100000, data_o=0
a=         27, di_en=1, do_en=0, data_i=00111111100000, data_o=0
a=         28, di_en=1, do_en=0, data_i=00111111100000, data_o=0
a=         29, di_en=1, do_en=0, data_i=00111111100000, data_o=0
a=         30, di_en=1, do_en=0, data_i=00111111100000, data_o=0
a=         31, di_en=1, do_en=0, data_i=00111111000000, data_o=0
a=         32, di_en=1, do_en=0, data_i=00111111000000, data_o=0
a=         33, di_en=1, do_en=0, data_i=00111111000000, data_o=0
a=         34, di_en=1, do_en=0, data_i=00111111000000, data_o=0
a=         35, di_en=1, do_en=0, data_i=00111111000000, data_o=0
a=         36, di_en=1, do_en=0, data_i=00111111000000, data_o=0
a=         37, di_en=1, do_en=0, data_i=00111111000000, data_o=0
a=         38, di_en=1, do_en=0, data_i=00111111000000, data_o=0
a=         39, di_en=1, do_en=0, data_i=00111110100000, data_o=0
a=         40, di_en=1, do_en=0, data_i=00111110100000, data_o=0
a=         41, di_en=1, do_en=0, data_i=00111110100000, data_o=0
a=         42, di_en=1, do_en=0, data_i=00111110100000, data_o=0
a=         43, di_en=1, do_en=0, data_i=00111110100000, data_o=0
a=         44, di_en=1, do_en=0, data_i=00111110100000, data_o=0
a=         45, di_en=1, do_en=0, data_i=00111110100000, data_o=0
a=         46, di_en=1, do_en=0, data_i=00111110000000, data_o=0
a=         47, di_en=1, do_en=0, data_i=00111110000000, data_o=0
a=         48, di_en=1, do_en=0, data_i=00111110000000, data_o=0
a=         49, di_en=1, do_en=0, data_i=00111110000000, data_o=0
a=         50, di_en=1, do_en=0, data_i=00111110000000, data_o=0
a=         51, di_en=1, do_en=0, data_i=00111101100000, data_o=0
a=         52, di_en=1, do_en=0, data_i=00111101100000, data_o=0
a=         53, di_en=1, do_en=0, data_i=00111101100000, data_o=0
a=         54, di_en=1, do_en=0, data_i=00111101100000, data_o=0
a=         55, di_en=1, do_en=0, data_i=00111101100000, data_o=0
a=         56, di_en=1, do_en=0, data_i=00111101000000, data_o=0
a=         57, di_en=1, do_en=0, data_i=00111101000000, data_o=0
a=         58, di_en=1, do_en=0, data_i=00111101000000, data_o=0
a=         59, di_en=1, do_en=0, data_i=00111101000000, data_o=0
a=         60, di_en=1, do_en=0, data_i=00111101000000, data_o=0
a=         61, di_en=1, do_en=0, data_i=00111100100000, data_o=0
a=         62, di_en=1, do_en=0, data_i=00111100100000, data_o=0
a=         63, di_en=1, do_en=0, data_i=00111100100000, data_o=0
a=         64, di_en=1, do_en=0, data_i=00111100100000, data_o=0
a=         65, di_en=1, do_en=0, data_i=00111100000000, data_o=0
a=         66, di_en=1, do_en=0, data_i=00111100000000, data_o=0
a=         67, di_en=1, do_en=0, data_i=00111100000000, data_o=0
a=         68, di_en=1, do_en=0, data_i=00111011100000, data_o=0
a=         69, di_en=1, do_en=0, data_i=00111011100000, data_o=0
a=         70, di_en=1, do_en=0, data_i=00111011100000, data_o=0
a=         71, di_en=1, do_en=0, data_i=00111011100000, data_o=0
a=         72, di_en=1, do_en=0, data_i=00111011000000, data_o=0
a=         73, di_en=1, do_en=0, data_i=00111011000000, data_o=0
a=         74, di_en=1, do_en=0, data_i=00111011000000, data_o=0
a=         75, di_en=1, do_en=0, data_i=00111010100000, data_o=0
a=         76, di_en=1, do_en=0, data_i=00111010100000, data_o=0
a=         77, di_en=1, do_en=0, data_i=00111010100000, data_o=0
a=         78, di_en=1, do_en=0, data_i=00111010100000, data_o=0
a=         79, di_en=1, do_en=0, data_i=00111010000000, data_o=0
a=         80, di_en=1, do_en=0, data_i=00111010000000, data_o=0
a=         81, di_en=1, do_en=0, data_i=00111010000000, data_o=0
a=         82, di_en=1, do_en=0, data_i=00111001100000, data_o=0
a=         83, di_en=1, do_en=0, data_i=00111001100000, data_o=0
a=         84, di_en=1, do_en=0, data_i=00111001100000, data_o=0
a=         85, di_en=1, do_en=0, data_i=00111001000000, data_o=0
a=         86, di_en=1, do_en=0, data_i=00111001000000, data_o=0
a=         87, di_en=1, do_en=0, data_i=00111000100000, data_o=0
a=         88, di_en=1, do_en=0, data_i=00111000100000, data_o=0
a=         89, di_en=1, do_en=0, data_i=00111000100000, data_o=0
a=         90, di_en=1, do_en=0, data_i=00111000000000, data_o=0
a=         91, di_en=1, do_en=0, data_i=00111000000000, data_o=0
a=         92, di_en=1, do_en=0, data_i=00111000000000, data_o=0
a=         93, di_en=1, do_en=0, data_i=00110111100000, data_o=0
a=         94, di_en=1, do_en=0, data_i=00110111100000, data_o=0
a=         95, di_en=1, do_en=0, data_i=00110111000000, data_o=0
a=         96, di_en=1, do_en=0, data_i=00110111000000, data_o=0
a=         97, di_en=1, do_en=0, data_i=00110111000000, data_o=0
a=         98, di_en=1, do_en=0, data_i=00110110100000, data_o=0
a=         99, di_en=1, do_en=0, data_i=00110110100000, data_o=0
a=        100, di_en=1, do_en=0, data_i=00110110000000, data_o=0
a=        101, di_en=1, do_en=0, data_i=00110110000000, data_o=0
a=        102, di_en=1, do_en=0, data_i=00110110000000, data_o=0
a=        103, di_en=1, do_en=0, data_i=00110101100000, data_o=0
a=        104, di_en=1, do_en=0, data_i=00110101100000, data_o=0
a=        105, di_en=1, do_en=0, data_i=00110101000000, data_o=0
a=        106, di_en=1, do_en=0, data_i=00110101000000, data_o=0
a=        107, di_en=1, do_en=0, data_i=00110100100000, data_o=0
a=        108, di_en=1, do_en=0, data_i=00110100100000, data_o=0
a=        109, di_en=1, do_en=0, data_i=00110100100000, data_o=0
a=        110, di_en=1, do_en=0, data_i=00110100000000, data_o=0
a=        111, di_en=1, do_en=0, data_i=00110100000000, data_o=0
a=        112, di_en=1, do_en=0, data_i=00110011100000, data_o=0
a=        113, di_en=1, do_en=0, data_i=00110011100000, data_o=0
a=        114, di_en=1, do_en=0, data_i=00110011000000, data_o=0
a=        115, di_en=1, do_en=0, data_i=00110011000000, data_o=0
a=        116, di_en=1, do_en=0, data_i=00110010100000, data_o=0
a=        117, di_en=1, do_en=0, data_i=00110010100000, data_o=0
a=        118, di_en=1, do_en=0, data_i=00110010000000, data_o=0
a=        119, di_en=1, do_en=0, data_i=00110010000000, data_o=0
a=        120, di_en=1, do_en=0, data_i=00110001100000, data_o=0
a=        121, di_en=1, do_en=0, data_i=00110001100000, data_o=0
a=        122, di_en=1, do_en=0, data_i=00110001000000, data_o=0
a=        123, di_en=1, do_en=0, data_i=00110001000000, data_o=0
a=        124, di_en=1, do_en=0, data_i=00110000100000, data_o=0
a=        125, di_en=1, do_en=0, data_i=00110000100000, data_o=0
a=        126, di_en=1, do_en=0, data_i=00110000000000, data_o=0
a=        127, di_en=1, do_en=0, data_i=00110000000000, data_o=0
a=        128, di_en=1, do_en=0, data_i=00101111100000, data_o=0
a=        129, di_en=1, do_en=0, data_i=00101111100000, data_o=0
a=        130, di_en=1, do_en=0, data_i=00101111000000, data_o=0
a=        131, di_en=1, do_en=0, data_i=00101111000000, data_o=0
a=        132, di_en=1, do_en=0, data_i=00101110100000, data_o=0
a=        133, di_en=1, do_en=0, data_i=00101110100000, data_o=0
a=        134, di_en=1, do_en=0, data_i=00101110000000, data_o=0
a=        135, di_en=1, do_en=0, data_i=00101110000000, data_o=0
a=        136, di_en=1, do_en=0, data_i=00101101100000, data_o=0
a=        137, di_en=1, do_en=0, data_i=00101101100000, data_o=0
a=        138, di_en=1, do_en=0, data_i=00101101000000, data_o=0
a=        139, di_en=1, do_en=0, data_i=00101100100000, data_o=0
a=        140, di_en=1, do_en=0, data_i=00101100100000, data_o=0
a=        141, di_en=1, do_en=0, data_i=00101100000000, data_o=0
a=        142, di_en=1, do_en=0, data_i=00101100000000, data_o=0
a=        143, di_en=1, do_en=0, data_i=00101011100000, data_o=0
a=        144, di_en=1, do_en=0, data_i=00101011100000, data_o=0
a=        145, di_en=1, do_en=0, data_i=00101011000000, data_o=0
a=        146, di_en=1, do_en=0, data_i=00101010100000, data_o=0
a=        147, di_en=1, do_en=0, data_i=00101010100000, data_o=0
a=        148, di_en=1, do_en=0, data_i=00101010000000, data_o=0
a=        149, di_en=1, do_en=0, data_i=00101010000000, data_o=0
a=        150, di_en=1, do_en=0, data_i=00101001100000, data_o=0
a=        151, di_en=1, do_en=0, data_i=00101001100000, data_o=0
a=        152, di_en=1, do_en=0, data_i=00101001000000, data_o=0
a=        153, di_en=1, do_en=0, data_i=00101000100000, data_o=0
a=        154, di_en=1, do_en=0, data_i=00101000100000, data_o=0
a=        155, di_en=1, do_en=0, data_i=00101000000000, data_o=0
a=        156, di_en=1, do_en=0, data_i=00100111100000, data_o=0
a=        157, di_en=1, do_en=0, data_i=00100111100000, data_o=0
a=        158, di_en=1, do_en=0, data_i=00100111000000, data_o=0
a=        159, di_en=1, do_en=0, data_i=00100111000000, data_o=0
a=        160, di_en=1, do_en=0, data_i=00100110100000, data_o=0
a=        161, di_en=1, do_en=0, data_i=00100110000000, data_o=0
a=        162, di_en=1, do_en=0, data_i=00100110000000, data_o=0
a=        163, di_en=1, do_en=0, data_i=00100101100000, data_o=0
a=        164, di_en=1, do_en=0, data_i=00100101000000, data_o=0
a=        165, di_en=1, do_en=0, data_i=00100101000000, data_o=0
a=        166, di_en=1, do_en=0, data_i=00100100100000, data_o=0
a=        167, di_en=1, do_en=0, data_i=00100100100000, data_o=0
a=        168, di_en=1, do_en=0, data_i=00100100000000, data_o=0
a=        169, di_en=1, do_en=0, data_i=00100011100000, data_o=0
a=        170, di_en=1, do_en=0, data_i=00100011100000, data_o=0
a=        171, di_en=1, do_en=0, data_i=00100011000000, data_o=0
a=        172, di_en=1, do_en=0, data_i=00100010100000, data_o=0
a=        173, di_en=1, do_en=0, data_i=00100010100000, data_o=0
a=        174, di_en=1, do_en=0, data_i=00100010000000, data_o=0
a=        175, di_en=1, do_en=0, data_i=00100001100000, data_o=0
a=        176, di_en=1, do_en=0, data_i=00100001100000, data_o=0
a=        177, di_en=1, do_en=0, data_i=00100001000000, data_o=0
a=        178, di_en=1, do_en=0, data_i=00100000100000, data_o=0
a=        179, di_en=1, do_en=0, data_i=00100000100000, data_o=0
a=        180, di_en=1, do_en=0, data_i=00100000000000, data_o=0
a=        181, di_en=1, do_en=0, data_i=00011111100000, data_o=0
a=        182, di_en=1, do_en=0, data_i=00011111100000, data_o=0
a=        183, di_en=1, do_en=0, data_i=00011111000000, data_o=0
a=        184, di_en=1, do_en=0, data_i=00011110100000, data_o=0
a=        185, di_en=1, do_en=0, data_i=00011110100000, data_o=0
a=        186, di_en=1, do_en=0, data_i=00011110000000, data_o=0
a=        187, di_en=1, do_en=0, data_i=00011101100000, data_o=0
a=        188, di_en=1, do_en=0, data_i=00011101000000, data_o=0
a=        189, di_en=1, do_en=0, data_i=00011101000000, data_o=0
a=        190, di_en=1, do_en=0, data_i=00011100100000, data_o=0
a=        191, di_en=1, do_en=0, data_i=00011100000000, data_o=0
a=        192, di_en=1, do_en=0, data_i=00011100000000, data_o=0
a=        193, di_en=1, do_en=0, data_i=00011011100000, data_o=0
a=        194, di_en=1, do_en=0, data_i=00011011000000, data_o=0
a=        195, di_en=1, do_en=0, data_i=00011011000000, data_o=0
a=        196, di_en=1, do_en=0, data_i=00011010100000, data_o=0
a=        197, di_en=1, do_en=0, data_i=00011010000000, data_o=0
a=        198, di_en=1, do_en=0, data_i=00011001100000, data_o=0
a=        199, di_en=1, do_en=0, data_i=00011001100000, data_o=0
a=        200, di_en=1, do_en=0, data_i=00011001000000, data_o=0
a=        201, di_en=1, do_en=0, data_i=00011000100000, data_o=0
a=        202, di_en=1, do_en=0, data_i=00011000000000, data_o=0
a=        203, di_en=1, do_en=0, data_i=00011000000000, data_o=0
a=        204, di_en=1, do_en=0, data_i=00010111100000, data_o=0
a=        205, di_en=1, do_en=0, data_i=00010111000000, data_o=0
a=        206, di_en=1, do_en=0, data_i=00010111000000, data_o=0
a=        207, di_en=1, do_en=0, data_i=00010110100000, data_o=0
a=        208, di_en=1, do_en=0, data_i=00010110000000, data_o=0
a=        209, di_en=1, do_en=0, data_i=00010101100000, data_o=0
a=        210, di_en=1, do_en=0, data_i=00010101100000, data_o=0
a=        211, di_en=1, do_en=0, data_i=00010101000000, data_o=0
a=        212, di_en=1, do_en=0, data_i=00010100100000, data_o=0
a=        213, di_en=1, do_en=0, data_i=00010100000000, data_o=0
a=        214, di_en=1, do_en=0, data_i=00010100000000, data_o=0
a=        215, di_en=1, do_en=0, data_i=00010011100000, data_o=0
a=        216, di_en=1, do_en=0, data_i=00010011000000, data_o=0
a=        217, di_en=1, do_en=0, data_i=00010010100000, data_o=0
a=        218, di_en=1, do_en=0, data_i=00010010100000, data_o=0
a=        219, di_en=1, do_en=0, data_i=00010010000000, data_o=0
a=        220, di_en=1, do_en=0, data_i=00010001100000, data_o=0
a=        221, di_en=1, do_en=0, data_i=00010001000000, data_o=0
a=        222, di_en=1, do_en=0, data_i=00010001000000, data_o=0
a=        223, di_en=1, do_en=0, data_i=00010000100000, data_o=0
a=        224, di_en=1, do_en=0, data_i=00010000000000, data_o=0
a=        225, di_en=1, do_en=0, data_i=00001111100000, data_o=0
a=        226, di_en=1, do_en=0, data_i=00001111100000, data_o=0
a=        227, di_en=1, do_en=0, data_i=00001111000000, data_o=0
a=        228, di_en=1, do_en=0, data_i=00001110100000, data_o=0
a=        229, di_en=1, do_en=0, data_i=00001110000000, data_o=0
a=        230, di_en=1, do_en=0, data_i=00001110000000, data_o=0
a=        231, di_en=1, do_en=0, data_i=00001101100000, data_o=0
a=        232, di_en=1, do_en=0, data_i=00001101000000, data_o=0
a=        233, di_en=1, do_en=0, data_i=00001100100000, data_o=0
a=        234, di_en=1, do_en=0, data_i=00001100000000, data_o=0
a=        235, di_en=1, do_en=0, data_i=00001100000000, data_o=0
a=        236, di_en=1, do_en=0, data_i=00001011100000, data_o=0
a=        237, di_en=1, do_en=0, data_i=00001011000000, data_o=0
a=        238, di_en=1, do_en=0, data_i=00001010100000, data_o=0
a=        239, di_en=1, do_en=0, data_i=00001010100000, data_o=0
a=        240, di_en=1, do_en=0, data_i=00001010000000, data_o=0
a=        241, di_en=1, do_en=0, data_i=00001001100000, data_o=0
a=        242, di_en=1, do_en=0, data_i=00001001000000, data_o=0
a=        243, di_en=1, do_en=0, data_i=00001001000000, data_o=0
a=        244, di_en=1, do_en=0, data_i=00001000100000, data_o=0
a=        245, di_en=1, do_en=0, data_i=00001000000000, data_o=0
a=        246, di_en=1, do_en=0, data_i=00000111100000, data_o=0
a=        247, di_en=1, do_en=0, data_i=00000111000000, data_o=0
a=        248, di_en=1, do_en=0, data_i=00000111000000, data_o=0
a=        249, di_en=1, do_en=0, data_i=00000110100000, data_o=0
a=        250, di_en=1, do_en=0, data_i=00000110000000, data_o=0
a=        251, di_en=1, do_en=0, data_i=00000101100000, data_o=0
a=        252, di_en=1, do_en=0, data_i=00000101000000, data_o=0
a=        253, di_en=1, do_en=0, data_i=00000101000000, data_o=0
a=        254, di_en=1, do_en=0, data_i=00000100100000, data_o=0
a=        255, di_en=1, do_en=0, data_i=00000100000000, data_o=0
a=        256, di_en=1, do_en=0, data_i=00000011100000, data_o=0
a=        257, di_en=1, do_en=0, data_i=00000011100000, data_o=0
a=        258, di_en=1, do_en=0, data_i=00000011000000, data_o=0
a=        259, di_en=1, do_en=0, data_i=00000010100000, data_o=0
a=        260, di_en=1, do_en=0, data_i=00000010000000, data_o=0
a=        261, di_en=1, do_en=0, data_i=00000001100000, data_o=0
a=        262, di_en=1, do_en=0, data_i=00000001100000, data_o=0
a=        263, di_en=1, do_en=0, data_i=00000001000000, data_o=0
a=        264, di_en=1, do_en=0, data_i=00000000100000, data_o=0
a=        265, di_en=1, do_en=0, data_i=00000000000000, data_o=0
a=        266, di_en=1, do_en=0, data_i=00000000000000, data_o=0
a=        267, di_en=1, do_en=0, data_i=00000000000000, data_o=0
a=        268, di_en=1, do_en=0, data_i=11111111100000, data_o=0
a=        269, di_en=1, do_en=0, data_i=11111111000000, data_o=0
a=        270, di_en=1, do_en=0, data_i=11111110100000, data_o=0
a=        271, di_en=1, do_en=0, data_i=11111110100000, data_o=0
a=        272, di_en=1, do_en=0, data_i=11111110000000, data_o=0
a=        273, di_en=1, do_en=0, data_i=11111101100000, data_o=0
a=        274, di_en=1, do_en=0, data_i=11111101000000, data_o=0
a=        275, di_en=1, do_en=0, data_i=11111100100000, data_o=0
a=        276, di_en=1, do_en=0, data_i=11111100100000, data_o=0
a=        277, di_en=1, do_en=0, data_i=11111100000000, data_o=0
a=        278, di_en=1, do_en=0, data_i=11111011100000, data_o=0
a=        279, di_en=1, do_en=0, data_i=11111011000000, data_o=0
a=        280, di_en=1, do_en=0, data_i=11111011000000, data_o=0
a=        281, di_en=1, do_en=0, data_i=11111010100000, data_o=0
a=        282, di_en=1, do_en=0, data_i=11111010000000, data_o=0
a=        283, di_en=1, do_en=0, data_i=11111001100000, data_o=0
a=        284, di_en=1, do_en=0, data_i=11111001000000, data_o=0
a=        285, di_en=1, do_en=0, data_i=11111001000000, data_o=0
a=        286, di_en=1, do_en=0, data_i=11111000100000, data_o=0
a=        287, di_en=1, do_en=0, data_i=11111000000000, data_o=0
a=        288, di_en=1, do_en=0, data_i=11110111100000, data_o=0
a=        289, di_en=1, do_en=0, data_i=11110111000000, data_o=0
a=        290, di_en=1, do_en=0, data_i=11110111000000, data_o=0
a=        291, di_en=1, do_en=0, data_i=11110110100000, data_o=0
a=        292, di_en=1, do_en=0, data_i=11110110000000, data_o=0
a=        293, di_en=1, do_en=0, data_i=11110101100000, data_o=0
a=        294, di_en=1, do_en=0, data_i=11110101100000, data_o=0
a=        295, di_en=1, do_en=0, data_i=11110101000000, data_o=0
a=        296, di_en=1, do_en=0, data_i=11110100100000, data_o=0
a=        297, di_en=1, do_en=0, data_i=11110100000000, data_o=0
a=        298, di_en=1, do_en=0, data_i=11110100000000, data_o=0
a=        299, di_en=1, do_en=0, data_i=11110011100000, data_o=0
a=        300, di_en=1, do_en=0, data_i=11110011000000, data_o=0
a=        301, di_en=1, do_en=0, data_i=11110010100000, data_o=0
a=        302, di_en=1, do_en=0, data_i=11110010000000, data_o=0
a=        303, di_en=1, do_en=0, data_i=11110010000000, data_o=0
a=        304, di_en=1, do_en=0, data_i=11110001100000, data_o=0
a=        305, di_en=1, do_en=0, data_i=11110001000000, data_o=0
a=        306, di_en=1, do_en=0, data_i=11110000100000, data_o=0
a=        307, di_en=1, do_en=0, data_i=11110000100000, data_o=0
a=        308, di_en=1, do_en=0, data_i=11110000000000, data_o=0
a=        309, di_en=1, do_en=0, data_i=11101111100000, data_o=0
a=        310, di_en=1, do_en=0, data_i=11101111000000, data_o=0
a=        311, di_en=1, do_en=0, data_i=11101111000000, data_o=0
a=        312, di_en=1, do_en=0, data_i=11101110100000, data_o=0
a=        313, di_en=1, do_en=0, data_i=11101110000000, data_o=0
a=        314, di_en=1, do_en=0, data_i=11101101100000, data_o=0
a=        315, di_en=1, do_en=0, data_i=11101101100000, data_o=0
a=        316, di_en=1, do_en=0, data_i=11101101000000, data_o=0
a=        317, di_en=1, do_en=0, data_i=11101100100000, data_o=0
a=        318, di_en=1, do_en=0, data_i=11101100000000, data_o=0
a=        319, di_en=1, do_en=0, data_i=11101100000000, data_o=0
a=        320, di_en=1, do_en=0, data_i=11101011100000, data_o=0
a=        321, di_en=1, do_en=0, data_i=11101011000000, data_o=0
a=        322, di_en=1, do_en=0, data_i=11101010100000, data_o=0
a=        323, di_en=1, do_en=0, data_i=11101010100000, data_o=0
a=        324, di_en=1, do_en=0, data_i=11101010000000, data_o=0
a=        325, di_en=1, do_en=0, data_i=11101001100000, data_o=0
a=        326, di_en=1, do_en=0, data_i=11101001000000, data_o=0
a=        327, di_en=1, do_en=0, data_i=11101001000000, data_o=0
a=        328, di_en=1, do_en=0, data_i=11101000100000, data_o=0
a=        329, di_en=1, do_en=0, data_i=11101000000000, data_o=0
a=        330, di_en=1, do_en=0, data_i=11101000000000, data_o=0
a=        331, di_en=1, do_en=0, data_i=11100111100000, data_o=0
a=        332, di_en=1, do_en=0, data_i=11100111000000, data_o=0
a=        333, di_en=1, do_en=0, data_i=11100110100000, data_o=0
a=        334, di_en=1, do_en=0, data_i=11100110100000, data_o=0
a=        335, di_en=1, do_en=0, data_i=11100110000000, data_o=0
a=        336, di_en=1, do_en=0, data_i=11100101100000, data_o=0
a=        337, di_en=1, do_en=0, data_i=11100101000000, data_o=0
a=        338, di_en=1, do_en=0, data_i=11100101000000, data_o=0
a=        339, di_en=1, do_en=0, data_i=11100100100000, data_o=0
a=        340, di_en=1, do_en=0, data_i=11100100000000, data_o=0
a=        341, di_en=1, do_en=0, data_i=11100100000000, data_o=0
a=        342, di_en=1, do_en=0, data_i=11100011100000, data_o=0
a=        343, di_en=1, do_en=0, data_i=11100011000000, data_o=0
a=        344, di_en=1, do_en=0, data_i=11100011000000, data_o=0
a=        345, di_en=1, do_en=0, data_i=11100010100000, data_o=0
a=        346, di_en=1, do_en=0, data_i=11100010000000, data_o=0
a=        347, di_en=1, do_en=0, data_i=11100001100000, data_o=0
a=        348, di_en=1, do_en=0, data_i=11100001100000, data_o=0
a=        349, di_en=1, do_en=0, data_i=11100001000000, data_o=0
a=        350, di_en=1, do_en=0, data_i=11100000100000, data_o=0
a=        351, di_en=1, do_en=0, data_i=11100000100000, data_o=0
a=        352, di_en=1, do_en=0, data_i=11100000000000, data_o=0
a=        353, di_en=1, do_en=0, data_i=11011111100000, data_o=0
a=        354, di_en=1, do_en=0, data_i=11011111100000, data_o=0
a=        355, di_en=1, do_en=0, data_i=11011111000000, data_o=0
a=        356, di_en=1, do_en=0, data_i=11011110100000, data_o=0
a=        357, di_en=1, do_en=0, data_i=11011110100000, data_o=0
a=        358, di_en=1, do_en=0, data_i=11011110000000, data_o=0
a=        359, di_en=1, do_en=0, data_i=11011101100000, data_o=0
a=        360, di_en=1, do_en=0, data_i=11011101100000, data_o=0
a=        361, di_en=1, do_en=0, data_i=11011101000000, data_o=0
a=        362, di_en=1, do_en=0, data_i=11011100100000, data_o=0
a=        363, di_en=1, do_en=0, data_i=11011100100000, data_o=0
a=        364, di_en=1, do_en=0, data_i=11011100000000, data_o=0
a=        365, di_en=1, do_en=0, data_i=11011011100000, data_o=0
a=        366, di_en=1, do_en=0, data_i=11011011100000, data_o=0
a=        367, di_en=1, do_en=0, data_i=11011011000000, data_o=0
a=        368, di_en=1, do_en=0, data_i=11011011000000, data_o=0
a=        369, di_en=1, do_en=0, data_i=11011010100000, data_o=0
a=        370, di_en=1, do_en=0, data_i=11011010000000, data_o=0
a=        371, di_en=1, do_en=0, data_i=11011010000000, data_o=0
a=        372, di_en=1, do_en=0, data_i=11011001100000, data_o=0
a=        373, di_en=1, do_en=0, data_i=11011001000000, data_o=0
a=        374, di_en=1, do_en=0, data_i=11011001000000, data_o=0
a=        375, di_en=1, do_en=0, data_i=11011000100000, data_o=0
a=        376, di_en=1, do_en=0, data_i=11011000100000, data_o=0
a=        377, di_en=1, do_en=0, data_i=11011000000000, data_o=0
a=        378, di_en=1, do_en=0, data_i=11010111100000, data_o=0
a=        379, di_en=1, do_en=0, data_i=11010111100000, data_o=0
a=        380, di_en=1, do_en=0, data_i=11010111000000, data_o=0
a=        381, di_en=1, do_en=0, data_i=11010110100000, data_o=0
a=        382, di_en=1, do_en=0, data_i=11010110100000, data_o=0
a=        383, di_en=1, do_en=0, data_i=11010110000000, data_o=0
a=        384, di_en=1, do_en=0, data_i=11010110000000, data_o=0
a=        385, di_en=1, do_en=0, data_i=11010101100000, data_o=0
a=        386, di_en=1, do_en=0, data_i=11010101100000, data_o=0
a=        387, di_en=1, do_en=0, data_i=11010101000000, data_o=0
a=        388, di_en=1, do_en=0, data_i=11010100100000, data_o=0
a=        389, di_en=1, do_en=0, data_i=11010100100000, data_o=0
a=        390, di_en=1, do_en=0, data_i=11010100000000, data_o=0
a=        391, di_en=1, do_en=0, data_i=11010100000000, data_o=0
a=        392, di_en=1, do_en=0, data_i=11010011100000, data_o=0
a=        393, di_en=1, do_en=0, data_i=11010011100000, data_o=0
a=        394, di_en=1, do_en=0, data_i=11010011000000, data_o=0
a=        395, di_en=1, do_en=0, data_i=11010010100000, data_o=0
a=        396, di_en=1, do_en=0, data_i=11010010100000, data_o=0
a=        397, di_en=1, do_en=0, data_i=11010010000000, data_o=0
a=        398, di_en=1, do_en=0, data_i=11010010000000, data_o=0
a=        399, di_en=1, do_en=0, data_i=11010001100000, data_o=0
a=        400, di_en=1, do_en=0, data_i=11010001100000, data_o=0
a=        401, di_en=1, do_en=0, data_i=11010001000000, data_o=0
a=        402, di_en=1, do_en=0, data_i=11010001000000, data_o=0
a=        403, di_en=1, do_en=0, data_i=11010000100000, data_o=0
a=        404, di_en=1, do_en=0, data_i=11010000100000, data_o=0
a=        405, di_en=1, do_en=0, data_i=11010000000000, data_o=0
a=        406, di_en=1, do_en=0, data_i=11010000000000, data_o=0
a=        407, di_en=1, do_en=0, data_i=11001111100000, data_o=0
a=        408, di_en=1, do_en=0, data_i=11001111100000, data_o=0
a=        409, di_en=1, do_en=0, data_i=11001111000000, data_o=0
a=        410, di_en=1, do_en=0, data_i=11001111000000, data_o=0
a=        411, di_en=1, do_en=0, data_i=11001110100000, data_o=0
a=        412, di_en=1, do_en=0, data_i=11001110100000, data_o=0
a=        413, di_en=1, do_en=0, data_i=11001110000000, data_o=0
a=        414, di_en=1, do_en=0, data_i=11001110000000, data_o=0
a=        415, di_en=1, do_en=0, data_i=11001101100000, data_o=0
a=        416, di_en=1, do_en=0, data_i=11001101100000, data_o=0
a=        417, di_en=1, do_en=0, data_i=11001101000000, data_o=0
a=        418, di_en=1, do_en=0, data_i=11001101000000, data_o=0
a=        419, di_en=1, do_en=0, data_i=11001100100000, data_o=0
a=        420, di_en=1, do_en=0, data_i=11001100100000, data_o=0
a=        421, di_en=1, do_en=0, data_i=11001100000000, data_o=0
a=        422, di_en=1, do_en=0, data_i=11001100000000, data_o=0
a=        423, di_en=1, do_en=0, data_i=11001011100000, data_o=0
a=        424, di_en=1, do_en=0, data_i=11001011100000, data_o=0
a=        425, di_en=1, do_en=0, data_i=11001011100000, data_o=0
a=        426, di_en=1, do_en=0, data_i=11001011000000, data_o=0
a=        427, di_en=1, do_en=0, data_i=11001011000000, data_o=0
a=        428, di_en=1, do_en=0, data_i=11001010100000, data_o=0
a=        429, di_en=1, do_en=0, data_i=11001010100000, data_o=0
a=        430, di_en=1, do_en=0, data_i=11001010000000, data_o=0
a=        431, di_en=1, do_en=0, data_i=11001010000000, data_o=0
a=        432, di_en=1, do_en=0, data_i=11001010000000, data_o=0
a=        433, di_en=1, do_en=0, data_i=11001001100000, data_o=0
a=        434, di_en=1, do_en=0, data_i=11001001100000, data_o=0
a=        435, di_en=1, do_en=0, data_i=11001001000000, data_o=0
a=        436, di_en=1, do_en=0, data_i=11001001000000, data_o=0
a=        437, di_en=1, do_en=0, data_i=11001001000000, data_o=0
a=        438, di_en=1, do_en=0, data_i=11001000100000, data_o=0
a=        439, di_en=1, do_en=0, data_i=11001000100000, data_o=0
a=        440, di_en=1, do_en=0, data_i=11001000000000, data_o=0
a=        441, di_en=1, do_en=0, data_i=11001000000000, data_o=0
a=        442, di_en=1, do_en=0, data_i=11001000000000, data_o=0
a=        443, di_en=1, do_en=0, data_i=11000111100000, data_o=0
a=        444, di_en=1, do_en=0, data_i=11000111100000, data_o=0
a=        445, di_en=1, do_en=0, data_i=11000111100000, data_o=0
a=        446, di_en=1, do_en=0, data_i=11000111000000, data_o=0
a=        447, di_en=1, do_en=0, data_i=11000111000000, data_o=0
a=        448, di_en=1, do_en=0, data_i=11000110100000, data_o=0
